<?xml version="1.0" encoding="UTF-8" standalone="no"?>
<svg
   width="1200.0002"
   height="786.77203"
   id="screenshot-2efc3826-dcb2-80e4-8001-91678968c181"
   viewBox="-27.262 -83.835 1200.0002 786.77202"
   style="-webkit-print-color-adjust:exact"
   fill="none"
   version="1.1"
   sodipodi:docname="workstation-gradient.svg"
   xml:space="preserve"
   inkscape:version="1.2.1 (9c6d41e410, 2022-07-14)"
   xmlns:inkscape="http://www.inkscape.org/namespaces/inkscape"
   xmlns:sodipodi="http://sodipodi.sourceforge.net/DTD/sodipodi-0.dtd"
   xmlns:xlink="http://www.w3.org/1999/xlink"
   xmlns="http://www.w3.org/2000/svg"
   xmlns:svg="http://www.w3.org/2000/svg"><defs
     id="defs82172"><linearGradient
       inkscape:collect="always"
       id="linearGradient88641"><stop
         style="stop-color:#beff70;stop-opacity:1;"
         offset="0"
         id="stop88637" /><stop
         style="stop-color:#51a2da;stop-opacity:1;"
         offset="1"
         id="stop88639" /></linearGradient><pattern
       inkscape:collect="always"
       xlink:href="#fill-0-e0f501d0-472d-80a2-8001-a24818d1f354"
       id="pattern84347"
       patternTransform="rotate(-145.66746,798.62183,61.114664)" /><pattern
       inkscape:collect="always"
       xlink:href="#fill-0-e0f501d0-472d-80a2-8001-a24818d01c24"
       id="pattern84316"
       patternTransform="translate(-3104.7399,-264.01923)" /><pattern
       inkscape:collect="always"
       xlink:href="#fill-0-e0f501d0-472d-80a2-8001-a24818d24e02"
       id="pattern84281"
       patternTransform="translate(-3057.9541,-69.739688)" /><radialGradient
       id="fill-color-gradient_e0f501d0-472d-80a2-8001-a24818d11485_0"
       cx="-0.090000004"
       cy="-0.11"
       r="1.220041"
       gradientTransform="matrix(-1.796295,-0.014724,0.008196,-0.999966,-0.250765,-0.221321)"><stop
         offset="0"
         stop-color="#9edc53"
         stop-opacity="1"
         id="stop82291" /><stop
         offset="1"
         stop-color="#51a2da"
         stop-opacity="1"
         id="stop82293" /></radialGradient><pattern
       patternUnits="userSpaceOnUse"
       x="0"
       y="0"
       height="789"
       width="1485"
       data-loading="false"
       id="fill-0-e0f501d0-472d-80a2-8001-a24818d11485"><g
         id="g82298"><rect
           width="1485"
           height="789"
           style="fill: url(&quot;#fill-color-gradient_e0f501d0-472d-80a2-8001-a24818d11485_0&quot;);"
           id="rect82296" /></g></pattern><radialGradient
       id="fill-color-gradient_e0f501d0-472d-80a2-8001-a24818d1f354_0"
       cx="-0.090000004"
       cy="-0.11"
       r="1.220041"
       gradientTransform="matrix(-1.796295,-0.014724,0.008196,-0.999966,-0.250765,-0.221321)"><stop
         offset="0"
         stop-color="#9edc53"
         stop-opacity="1"
         id="stop82344" /><stop
         offset="1"
         stop-color="#51a2da"
         stop-opacity="1"
         id="stop82346" /></radialGradient><pattern
       patternUnits="userSpaceOnUse"
       x="0"
       y="0"
       height="836"
       width="1485"
       data-loading="false"
       id="fill-0-e0f501d0-472d-80a2-8001-a24818d1f354"><g
         id="g82351"><rect
           width="1485"
           height="836"
           style="fill: url(&quot;#fill-color-gradient_e0f501d0-472d-80a2-8001-a24818d1f354_0&quot;);"
           id="rect82349" /></g></pattern><radialGradient
       id="fill-color-gradient_e0f501d0-472d-80a2-8001-a24818d24e02_0"
       cx="0.07"
       cy="0.17"
       r="0.37121421"
       gradientTransform="rotate(94.635471,0.06999983,0.17000013)"><stop
         offset="0"
         stop-color="#f0fce8"
         stop-opacity="0.64"
         id="stop82397" /><stop
         offset="1"
         stop-color="#d9ffbd"
         stop-opacity="0"
         id="stop82399" /></radialGradient><pattern
       patternUnits="userSpaceOnUse"
       x="3032"
       y="-14"
       height="854.0000000000001"
       width="1243.999999999999"
       data-loading="false"
       patternTransform="matrix(1,0,0,1,0,0)"
       id="fill-0-e0f501d0-472d-80a2-8001-a24818d24e02"><g
         id="g82404"><rect
           width="1243.999999999999"
           height="854.0000000000001"
           style="fill: url(&quot;#fill-color-gradient_e0f501d0-472d-80a2-8001-a24818d24e02_0&quot;);"
           id="rect82402" /></g></pattern><radialGradient
       id="fill-color-gradient_e0f501d0-472d-80a2-8001-a24818d01c24_0"
       cx="0.83999997"
       cy="0.15000001"
       r="0.65924197"
       gradientTransform="rotate(170.39481,0.84000015,0.1499998)"><stop
         offset="0"
         stop-color="#79db32"
         stop-opacity="1"
         id="stop82450" /><stop
         offset="1"
         stop-color="#79db32"
         stop-opacity="0"
         id="stop82452" /></radialGradient><pattern
       patternUnits="userSpaceOnUse"
       x="3032"
       y="-14"
       height="854"
       width="1244"
       data-loading="false"
       patternTransform=""
       id="fill-0-e0f501d0-472d-80a2-8001-a24818d01c24"><g
         id="g82457"><rect
           width="1244"
           height="854"
           style="fill: url(&quot;#fill-color-gradient_e0f501d0-472d-80a2-8001-a24818d01c24_0&quot;);"
           id="rect82455" /></g></pattern><defs
       id="defs82407"><radialGradient
         id="radialGradient82433"
         cx="0.07"
         cy="0.17"
         r="0.37121421"
         gradientTransform="rotate(94.635471,0.06999983,0.17000013)"><stop
           offset="0"
           stop-color="#f0fce8"
           stop-opacity="0.64"
           id="stop82429" /><stop
           offset="1"
           stop-color="#d9ffbd"
           stop-opacity="0"
           id="stop82431" /></radialGradient><pattern
         patternUnits="userSpaceOnUse"
         x="3032"
         y="-14"
         height="854.0000000000001"
         width="1243.999999999999"
         data-loading="false"
         patternTransform="matrix(1,0,0,1,0,0)"
         id="pattern82439"><g
           id="g82437"><rect
             width="1243.999999999999"
             height="854.0000000000001"
             style="fill: url(&quot;#fill-color-gradient_e0f501d0-472d-80a2-8001-a24818d24e02_0&quot;);"
             id="rect82435" /></g></pattern></defs><defs
       id="defs82460"><radialGradient
         id="radialGradient82486"
         cx="0.83999997"
         cy="0.15000001"
         r="0.65924197"
         gradientTransform="rotate(170.39481,0.84000015,0.1499998)"><stop
           offset="0"
           stop-color="#79db32"
           stop-opacity="1"
           id="stop82482" /><stop
           offset="1"
           stop-color="#79db32"
           stop-opacity="0"
           id="stop82484" /></radialGradient><pattern
         patternUnits="userSpaceOnUse"
         x="3032"
         y="-14"
         height="854"
         width="1244"
         data-loading="false"
         patternTransform=""
         id="pattern82492"><g
           id="g82490"><rect
             width="1244"
             height="854"
             style="fill: url(&quot;#fill-color-gradient_e0f501d0-472d-80a2-8001-a24818d01c24_0&quot;);"
             id="rect82488" /></g></pattern></defs><defs
       id="defs82354"><radialGradient
         id="radialGradient82380"
         cx="-0.090000004"
         cy="-0.11"
         r="1.220041"
         gradientTransform="matrix(-1.796295,-0.014724,0.008196,-0.999966,-0.250765,-0.221321)"><stop
           offset="0"
           stop-color="#9edc53"
           stop-opacity="1"
           id="stop82376" /><stop
           offset="1"
           stop-color="#51a2da"
           stop-opacity="1"
           id="stop82378" /></radialGradient><pattern
         patternUnits="userSpaceOnUse"
         x="0"
         y="0"
         height="836"
         width="1485"
         data-loading="false"
         id="pattern82386"><g
           id="g82384"><rect
             width="1485"
             height="836"
             style="fill: url(&quot;#fill-color-gradient_e0f501d0-472d-80a2-8001-a24818d1f354_0&quot;);"
             id="rect82382" /></g></pattern></defs><radialGradient
       inkscape:collect="always"
       xlink:href="#linearGradient88641"
       id="radialGradient88643"
       cx="2414.7383"
       cy="3015.374"
       fx="2414.7383"
       fy="3015.374"
       r="1041.1957"
       gradientTransform="matrix(-0.03537564,1.0253828,-2.529497,-0.26951336,7295.8491,-2006.4489)"
       gradientUnits="userSpaceOnUse" /><defs
       id="defs82158"><radialGradient
         id="fill-color-gradient_e0f501d0-472d-80a2-8001-a24818ce0c89_0"
         cx="-0.090000004"
         cy="-0.11"
         r="1.220041"
         gradientTransform="matrix(-1.796295,-0.014724,0.008196,-0.999966,-0.250765,-0.221321)"><stop
           offset="0"
           stop-color="#beff70"
           stop-opacity="1"
           id="stop82148" /><stop
           offset="1"
           stop-color="#51a2da"
           stop-opacity="1"
           id="stop82150" /></radialGradient><pattern
         patternUnits="userSpaceOnUse"
         x="0"
         y="0"
         height="739"
         width="2027"
         data-loading="false"
         id="fill-0-e0f501d0-472d-80a2-8001-a24818ce0c89"><g
           id="g82155"><rect
             width="2027"
             height="739"
             style="fill: url(&quot;#fill-color-gradient_e0f501d0-472d-80a2-8001-a24818ce0c89_0&quot;);"
             id="rect82153" /></g></pattern></defs><radialGradient
       inkscape:collect="always"
       xlink:href="#linearGradient88641"
       id="radialGradient90989"
       gradientUnits="userSpaceOnUse"
       gradientTransform="matrix(-0.41528887,0.93913504,-3.5839943,-1.648452,11461.568,1740.5379)"
       cx="2414.7383"
       cy="3015.374"
       fx="2414.7383"
       fy="3015.374"
       r="1041.1957" /></defs><sodipodi:namedview
     id="namedview82170"
     pagecolor="#ffffff"
     bordercolor="#666666"
     borderopacity="1.0"
     inkscape:showpageshadow="2"
     inkscape:pageopacity="0.0"
     inkscape:pagecheckerboard="0"
     inkscape:deskcolor="#d1d1d1"
     showgrid="false"
     inkscape:zoom="0.13"
     inkscape:cx="-1169.2308"
     inkscape:cy="-2207.6923"
     inkscape:window-width="2560"
     inkscape:window-height="1371"
     inkscape:window-x="0"
     inkscape:window-y="0"
     inkscape:window-maximized="1"
     inkscape:current-layer="screenshot-2efc3826-dcb2-80e4-8001-91678968c181" /><rect
     style="fill:#8c8c8c;fill-opacity:0.509422;stroke:none;stroke-width:4.0853;stroke-linecap:round;stroke-linejoin:round;stroke-miterlimit:4.4"
     id="rect84283"
     width="1200"
     height="786.77118"
     x="-27.261749"
     y="-83.834145" /><path
     id="rect85884"
     style="fill:url(#radialGradient88643);fill-opacity:1;stroke:none;stroke-width:3.31954;stroke-linecap:round;stroke-linejoin:round;stroke-miterlimit:4.4"
     d="m -27.261998,-83.834995 -2e-6,786.771495 1200,-5e-5 0,-786.771436 z" /><path
     id="path90987"
     style="opacity:0.33;fill:url(#radialGradient90989);fill-opacity:1;stroke:none;stroke-width:4.14068;stroke-linecap:round;stroke-linejoin:round;stroke-miterlimit:4.4"
     d="M -27.261997,-83.834988 V 278.29001 L 1091.656,702.93649 h 81.082 V -83.834988 Z" /><path
     id="path82409"
     style="fill:url(#pattern84281)"
     d="M -25.953407,-83.739288 V 702.93649 H 1172.738 V -83.739288 Z" /><path
     id="path82462"
     style="fill:url(#pattern84316)"
     d="M -27.261997,-83.834988 V 575.98141 H 1171.2595 V -83.834988 Z" /><g
     id="strokes-2efc3826-dcb2-80e4-8001-91678968c181"
     transform="translate(-407.86133,-209.16601)"><g
       class="stroke-shape"
       id="g82165"><rect
         rx="0"
         ry="0"
         x="0"
         y="0"
         transform="rotate(-4.8155341,1013.499,369.50158)"
         width="2027"
         height="739"
         style="fill:none"
         id="rect82163" /></g></g><path
     id="rect82356"
     style="opacity:0.33;fill:url(#pattern84347)"
     d="m 478.03293,-83.834993 694.70507,474.474623 0,-474.47463 z" /><g
     id="strokes-2efc3826-dcb2-80e4-8001-91678968c184"
     transform="translate(303.74753,-619.94106)"
     style="fill:none"><g
       class="stroke-shape"
       id="g82361"><rect
         rx="0"
         ry="0"
         x="0"
         y="0"
         transform="rotate(-145.66746,742.5001,418.00002)"
         width="1485"
         height="836"
         style="opacity:0.33;fill:none"
         id="rect82359" /></g></g><g
     id="strokes-2efc3826-dcb2-80e4-8001-91678968c182"
     transform="translate(-3104.7399,-264.01923)"
     style="fill:none"><g
       class="stroke-shape"
       id="g82467"><path
         rx="0"
         ry="0"
         d="M 3032,-14 H 4276 V 840 H 3032 Z"
         style="fill:none"
         id="path82465" /></g></g><g
     id="strokes-2efc3826-dcb2-80e4-8001-91678968c185"
     transform="translate(-3057.9541,-69.739688)"
     style="fill:none"><g
       class="stroke-shape"
       id="g82414"><path
         rx="0"
         ry="0"
         d="M 3032,-14 H 4276 V 840 H 3032 Z"
         style="fill:none"
         id="path82412" /></g></g></svg>
